---
source: spade-tests/src/ast_lowering.rs
expression: "std::str::from_utf8(buffer.as_slice()).expect(\"error contains invalid utf-8\")"
---
error: Unrecognised attribute
  ┌─ testinput:1:1
  │
1 │ #[uwu]
  │ ^^^^^^ Unrecognised attribute


