---
source: spade-tests/src/hir_lowering.rs
expression: "std::str::from_utf8(buffer.as_slice()).expect(\"error contains invalid utf-8\")"
---
error: Missing argument: b
  ┌─ testinput:3:10
  │
3 │     test$(a: true)
  │          ^^^^^^^^^ Missing argument: b


